…
    #Data is grouped according to group
    dfb <- group_by (dfa, Group)
    print(dfb)

    ## Source: local data frame [120 x 4]
    ## Groups: Group [2]
    ## 
    ##       ID     Group   Measurement Value
    ##    <int>    <fctr>         <chr> <int>
    ## 1      1 Analgesic Measurement_1    26
    ## 2      2 Analgesic Measurement_1    29
    ## 3      3 Analgesic Measurement_1    24
    ## 4      4 Analgesic Measurement_1    25
    ## 5      5 Analgesic Measurement_1    24
    ## 6      6 Analgesic Measurement_1    22
    ## 7      7 Analgesic Measurement_1    25
    ## 8      8 Analgesic Measurement_1    28
    ## 9      9 Analgesic Measurement_1    22
    ## 10    10 Analgesic Measurement_1    18
    ## # ... with 110 more rows

    #data is grouped according to ID
    dfc <- group_by (dfb, ID)
    print(dfc)

    ## Source: local data frame [120 x 4]
    ## Groups: ID [40]
    ## 
    ##       ID     Group   Measurement Value
    ##    <int>    <fctr>         <chr> <int>
    ## 1      1 Analgesic Measurement_1    26
    ## 2      2 Analgesic Measurement_1    29
    ## 3      3 Analgesic Measurement_1    24
    ## 4      4 Analgesic Measurement_1    25
    ## 5      5 Analgesic Measurement_1    24
    ## 6      6 Analgesic Measurement_1    22
    ## 7      7 Analgesic Measurement_1    25
    ## 8      8 Analgesic Measurement_1    28
    ## 9      9 Analgesic Measurement_1    22
    ## 10    10 Analgesic Measurement_1    18
    ## # ... with 110 more rows

    #Mean of the three measurements for each patient ID
    summarise (dfc, mean(Value))

    ## # A tibble: 40 × 2
    ##       ID `mean(Value)`
    ##    <int>         <dbl>
    ## 1      1      24.33333
    ## 2      2      26.00000
    ## 3      3      24.66667
    ## 4      4      23.66667
    ## 5      5      25.00000
    ## 6      6      23.66667
    ## 7      7      26.66667
    ## 8      8      23.33333
    ## 9      9      22.66667
    ## 10    10      24.00000
    ## # ... with 30 more rows
…
